Binomial Contingency Table for Data with a Binary Outcome — binom_contingency • ParaAnita
…
Other contingency_table: 
contingency_table(),
expl_fcts()

    Examples

## Bernoulli data with a single explanatory variable
(d <- bernoulli_data())
#> ___________________________
#> Simulated Bernoulli Data: -
#> 
#> # A tibble: 330 × 2
#>    iv       dv
#>  * <fct> <int>
#>  1 a         0
#>  2 a         1
#>  3 a         1
#>  4 a         1
#>  5 a         0
#>  6 a         1
#>  7 a         1
#>  8 a         0
#>  9 a         0
#> 10 a         1
#> # ℹ 320 more rows
…
## Bernoulli data for a single explanatory variable with levels at which responses are all zero
(d <- bernoulli_data(probs = seq(0.4, 0, length.out = 5)))
#> ___________________________
#> Simulated Bernoulli Data: -
#> 
#> # A tibble: 330 × 2
#>    iv       dv
#>  * <fct> <int>
#>  1 a         0
#>  2 a         1
#>  3 a         0
#>  4 a         0
#>  5 a         0
#>  6 a         0
#>  7 a         0
#>  8 a         1
#>  9 a         0
#> 10 a         0
#> # ℹ 320 more rows
…
## Bernoulli data with multiple explanatory variables
(d <- list(
    iv2 = list(i = c("a", "c", "e", "g"), j = c("b", "d", "f", "h")),
    iv3 = list(k = c("a", "b", "c", "d"), l = c("e", "f", "g", "h")),
    iv4 = list(k = c("a", "b"), l = c("c", "d"), m = c("e", "f"))
) |> add_grps(bernoulli_data(levels = 8), iv, .key = _))
#> ___________________________
#> Simulated Bernoulli Data: -
#> 
#> # A tibble: 528 × 5
#>    iv    iv2   iv3   iv4      dv
#>    <fct> <fct> <fct> <fct> <int>
#>  1 a     i     k     k         1
#>  2 a     i     k     k         0
#>  3 a     i     k     k         0
#>  4 a     i     k     k         0
#>  5 a     i     k     k         0
#>  6 a     i     k     k         0
#>  7 a     i     k     k         1
#>  8 a     i     k     k         1
#>  9 a     i     k     k         0
#> 10 a     i     k     k         1
#> # ℹ 518 more rows
…
