Contingency Tables for Two or More Categorical Variables — contingency_table • ParaAnita
…
rm(d)

## Using gss_cat dataset from {forcats} package
# \dontshow{
  if (!requireNamespace("forcats", quietly = TRUE)) 
    warning("package 'forcats' must be installed")
  try(gss_cat <- forcats::gss_cat)
# }

gss_cat |> contingency_table(race, relig, denom)
#> ____________________
#> Contingency Table: -
#> 
#> # A tibble: 47 × 5
#>    relig              denom             White Black Other
#>  * <fct>              <fct>             <int> <int> <int>
#>  1 Protestant         Southern baptist   1151   355    30
#>  2 Protestant         Baptist-dk which    723   697    37
#>  3 Protestant         No denomination    1020   149    55
#>  4 Orthodox-christian Not applicable       92     2     1
#>  5 None               Not applicable     2816   384   323
#>  6 Christian          Not applicable      147    49    28
#>  7 Protestant         Lutheran-mo synod   208     2     2
#>  8 Protestant         Other              1886   468   180
#>  9 Protestant         United methodist   1007    49    11
#> 10 Jewish             Not applicable      370    10     8
#> # ℹ 37 more rows
gss_cat |> contingency_table(race, !c(marital, rincome:partyid))
#> ____________________
#> Contingency Table: -
#> 
#> # A tibble: 47 × 5
#>    relig              denom             White Black Other
#>  * <fct>              <fct>             <int> <int> <int>
#>  1 Protestant         Southern baptist   1151   355    30
#>  2 Protestant         Baptist-dk which    723   697    37
#>  3 Protestant         No denomination    1020   149    55
#>  4 Orthodox-christian Not applicable       92     2     1
#>  5 None               Not applicable     2816   384   323
#>  6 Christian          Not applicable      147    49    28
#>  7 Protestant         Lutheran-mo synod   208     2     2
#>  8 Protestant         Other              1886   468   180
#>  9 Protestant         United methodist   1007    49    11
#> 10 Jewish             Not applicable      370    10     8
#> # ℹ 37 more rows

if (FALSE) {
  gss_cat |> contingency_table(race, relig, denom, .rownames = TRUE) 
  ## gives error message "duplicate 'row.names' are not allowed";
  ## use xcontingency_table() instead
}

gss_cat |> xcontingency_table(race, relig, denom)
#> ____________________________
#> Crossed Contingency Table: -
#> 
#> # A tibble: 47 × 4
#>    relig_denom                       White Black Other
#>  * <fct>                             <int> <int> <int>
#>  1 Protestant:Southern baptist        1151   355    30
#>  2 Protestant:Baptist-dk which         723   697    37
#>  3 Protestant:No denomination         1020   149    55
#>  4 Orthodox-christian:Not applicable    92     2     1
#>  5 None:Not applicable                2816   384   323
#>  6 Christian:Not applicable            147    49    28
#>  7 Protestant:Lutheran-mo synod        208     2     2
#>  8 Protestant:Other                   1886   468   180
#>  9 Protestant:United methodist        1007    49    11
#> 10 Jewish:Not applicable               370    10     8
#> # ℹ 37 more rows
gss_cat |> xcontingency_table(race, !c(marital, rincome:partyid))
#> ____________________________
#> Crossed Contingency Table: -
#> 
#> # A tibble: 47 × 4
#>    relig_denom                       White Black Other
#>  * <fct>                             <int> <int> <int>
#>  1 Protestant:Southern baptist        1151   355    30
#>  2 Protestant:Baptist-dk which         723   697    37
#>  3 Protestant:No denomination         1020   149    55
#>  4 Orthodox-christian:Not applicable    92     2     1
#>  5 None:Not applicable                2816   384   323
#>  6 Christian:Not applicable            147    49    28
#>  7 Protestant:Lutheran-mo synod        208     2     2
#>  8 Protestant:Other                   1886   468   180
#>  9 Protestant:United methodist        1007    49    11
#> 10 Jewish:Not applicable               370    10     8
#> # ℹ 37 more rows
gss_cat |> xcontingency_table(race, relig, denom, .crossname = "Denomination")
#> ____________________________
#> Crossed Contingency Table: -
#> 
#> # A tibble: 47 × 4
#>    Denomination                      White Black Other
#>  * <fct>                             <int> <int> <int>
#>  1 Protestant:Southern baptist        1151   355    30
#>  2 Protestant:Baptist-dk which         723   697    37
#>  3 Protestant:No denomination         1020   149    55
#>  4 Orthodox-christian:Not applicable    92     2     1
#>  5 None:Not applicable                2816   384   323
#>  6 Christian:Not applicable            147    49    28
#>  7 Protestant:Lutheran-mo synod        208     2     2
#>  8 Protestant:Other                   1886   468   180
#>  9 Protestant:United methodist        1007    49    11
#> 10 Jewish:Not applicable               370    10     8
#> # ℹ 37 more rows
…
## Two more esoteric examples
ivars <- quos(relig, denom)
gss_cat |> contingency_table(race, !!!ivars)
#> ____________________
#> Contingency Table: -
#> 
#> # A tibble: 47 × 5
#>    relig              denom             White Black Other
#>  * <fct>              <fct>             <int> <int> <int>
#>  1 Protestant         Southern baptist   1151   355    30
#>  2 Protestant         Baptist-dk which    723   697    37
#>  3 Protestant         No denomination    1020   149    55
#>  4 Orthodox-christian Not applicable       92     2     1
#>  5 None               Not applicable     2816   384   323
#>  6 Christian          Not applicable      147    49    28
#>  7 Protestant         Lutheran-mo synod   208     2     2
#>  8 Protestant         Other              1886   468   180
#>  9 Protestant         United methodist   1007    49    11
#> 10 Jewish             Not applicable      370    10     8
#> # ℹ 37 more rows

ivars <- c("relig", "denom")
gss_cat |> contingency_table(race, any_of(ivars))
#> ____________________
#> Contingency Table: -
#> 
#> # A tibble: 47 × 5
#>    relig              denom             White Black Other
#>  * <fct>              <fct>             <int> <int> <int>
#>  1 Protestant         Southern baptist   1151   355    30
#>  2 Protestant         Baptist-dk which    723   697    37
#>  3 Protestant         No denomination    1020   149    55
#>  4 Orthodox-christian Not applicable       92     2     1
#>  5 None               Not applicable     2816   384   323
#>  6 Christian          Not applicable      147    49    28
#>  7 Protestant         Lutheran-mo synod   208     2     2
#>  8 Protestant         Other              1886   468   180
#>  9 Protestant         United methodist   1007    49    11
#> 10 Jewish             Not applicable      370    10     8
#> # ℹ 37 more rows
…
