Explanatory Factors in Data as List of Expressions — expl_fcts • ParaAnita
…
Other contingency_table: 
binom_contingency(),
contingency_table()

    Examples

(d <- list(
    iv2 = list(g = c("a", "c", "e"), h = c("b", "d", "f")),
    iv3 = list(i = c("a", "b", "c"), j = c("d", "e", "f")),
    iv4 = list(k = c("a", "b"), l = c("c", "d"), m = c("e", "f"))
) |> add_grps(bernoulli_data(levels = 6), iv, .key = _))
#> ___________________________
#> Simulated Bernoulli Data: -
#> 
#> # A tibble: 396 × 5
#>    iv    iv2   iv3   iv4      dv
#>    <fct> <fct> <fct> <fct> <int>
#>  1 a     g     i     k         1
#>  2 a     g     i     k         0
#>  3 a     g     i     k         0
#>  4 a     g     i     k         1
#>  5 a     g     i     k         1
#>  6 a     g     i     k         0
#>  7 a     g     i     k         1
#>  8 a     g     i     k         0
#>  9 a     g     i     k         0
#> 10 a     g     i     k         1
#> # ℹ 386 more rows
…
