Levels of Independent Variable where Dependent Variable Neither All Success Nor All Failure — good_levels • ParaAnita
…
    See also

    binom_contingency and levels.

Other levels_data:
levels_data()

    Examples

(d_bern <- bernoulli_data(probs = c(0.8, 0.4, 0, 0.3, 0.6 )))
#> ___________________________
#> Simulated Bernoulli Data: -
#> 
#> # A tibble: 330 × 2
#>    iv       dv
#>  * <fct> <int>
#>  1 a         1
#>  2 a         0
#>  3 a         1
#>  4 a         1
#>  5 a         0
#>  6 a         1
#>  7 a         1
#>  8 a         1
#>  9 a         1
#> 10 a         0
#> # ℹ 320 more rows
d_bern |> levels_data()
#> $iv
#> [1] "a" "b" "c" "d" "e"
#> 

## S3 methods for class 'data.frame' 
d_bern |> good_levels(dv, iv)
#> [1] "a" "b" "d" "e"
d_bern |> drop_zero(dv, iv)
#> ___________________________
#> Simulated Bernoulli Data: -
#> 
#> # A tibble: 264 × 2
#>    iv       dv
#>    <fct> <int>
#>  1 a         1
#>  2 a         0
#>  3 a         1
#>  4 a         1
#>  5 a         0
#>  6 a         1
#>  7 a         1
#>  8 a         1
#>  9 a         1
#> 10 a         0
#> # ℹ 254 more rows
…
