Odds Ratios, Standard Errors, Confidence Intervals and P-Values for Binomial GLMs — odds_ratio • ParaAnita
…
    See also

    binom_contingency(), contrast matrix,
contrasts(), glm(), set_contrasts(),
summary.glm(); Print_Methods and print_all() for S3
methods for printing objects of class "odds_ratio".

    Examples

## Create simulated Bernoulli data
(d <- bernoulli_data())
#> ___________________________
#> Simulated Bernoulli Data: -
#> 
#> # A tibble: 330 × 2
#>    iv       dv
#>  * <fct> <int>
#>  1 a         1
#>  2 a         0
#>  3 a         0
#>  4 a         1
#>  5 a         0
#>  6 a         0
#>  7 a         0
#>  8 a         1
#>  9 a         0
#> 10 a         0
#> # ℹ 320 more rows
…
