S3 Print Methods — Print_Methods • ParaAnita
…
    Examples

## print.announce() — print an 'announce' object
announce("x", lead = "Lorem ipsum dolor sit amet")
#> _____________________________
#> Lorem ipsum dolor sit amet: -
#> 
#> [1] "x"

(d <- bernoulli_data())
#> ___________________________
#> Simulated Bernoulli Data: -
#> 
#> # A tibble: 330 × 2
#>    iv       dv
#>  * <fct> <int>
#>  1 a         0
#>  2 a         1
#>  3 a         1
#>  4 a         1
#>  5 a         1
#>  6 a         0
#>  7 a         1
#>  8 a         1
#>  9 a         1
#> 10 a         1
#> # ℹ 320 more rows
…
