Simulated Bernoulli and Binomial Proportion Data — Simulate_Data • ParaAnita
…
    The default length of 66 is the minimum number of trials with probability of success of 0.1 for which the
overall probability of zero failures is less than 1 in 1000 i.e., \((1 - 0.1)^{66} < 0.001\).

    See also

    rbinom()

    Examples

bernoulli_data()
#> ___________________________
#> Simulated Bernoulli Data: -
#> 
#> # A tibble: 330 × 2
#>    iv       dv
#>  * <fct> <int>
#>  1 a         1
#>  2 a         0
#>  3 a         0
#>  4 a         0
#>  5 a         1
#>  6 a         0
#>  7 a         0
#>  8 a         1
#>  9 a         1
#> 10 a         0
#> # ℹ 320 more rows
…
